U.S. Severe Weather Conditions with Highest Impact on Humans, Properties & Crops
…
print(humans_harmed)

## # A tibble: 105 x 6
##    event_phonetic event_type     fatalities injuries    propdmg cropdmg
##    <chr>          <chr>               <dbl>    <dbl>      <dbl>   <dbl>
##  1 T653           TORNADO              5658    91368 3214533960 100029.
##  2 E221           EXCESSIVE HEAT       1905     6548    3395000    636.
##  3 F421           FLASH FLOOD          1018     1785 1455199650 185057.
##  4 H300           HEAT                  937     2100     298500    663.
##  5 L235           LIGHTING              817     5232  603434780   3581.
##  6 R126           RIP CURRENT           577      529     163000      0 
##  7 T235           TSTM WIND             510     7056 1345048710 113559.
##  8 F430           FLOOD                 470     6789  899938480 168038.
##  9 E236           EXTREME COLD          400      415   11121650   6213.
## 10 H253           HIGH  WINDS           293     1471  381866160  21058.
## #  with 95 more rows
…
print(cash_dmg)

## # A tibble: 138 x 6
##    event_phonetic event_type          fatalities injuries    propdmg cropdmg
##    <chr>          <chr>                    <dbl>    <dbl>      <dbl>   <dbl>
##  1 T653           TORNADO                   5658    91368 3214533960 100029.
##  2 F421           FLASH FLOOD               1018     1785 1455199650 185057.
##  3 T235           TSTM WIND                  510     7056 1345048710 113559.
##  4 T536           THUNDEERSTORM WINDS        202     2453 1328985550  85735.
##  5 F430           FLOOD                      470     6789  899938480 168038.
##  6 H400           HAIL                        15     1361  688845780 579686.
##  7 L235           LIGHTING                   817     5232  603434780   3581.
##  8 H253           HIGH  WINDS                293     1471  381866160  21058.
##  9 W536           WINTER STORM               279     1968  150201490   2499.
## 10 W431           WILD FIRES                  90     1606  125148290   9066.
## #  with 128 more rows
…
